STAT450, Exam 1
…
Question 1

(a)

flights |>
  filter(dest == "SFO")

# A tibble: 13,331 × 19
    year month   day dep_time sched_dep_time dep_delay arr_time sched_arr_time
   <int> <int> <int>    <int>          <int>     <dbl>    <int>          <int>
 1  2013     1     1      558            600        -2      923            937
 2  2013     1     1      611            600        11      945            931
 3  2013     1     1      655            700        -5     1037           1045
 4  2013     1     1      729            730        -1     1049           1115
 5  2013     1     1      734            737        -3     1047           1113
 6  2013     1     1      745            745         0     1135           1125
 7  2013     1     1      746            746         0     1119           1129
 8  2013     1     1      803            800         3     1132           1144
 9  2013     1     1      826            817         9     1145           1158
10  2013     1     1     1029           1030        -1     1427           1355
# ℹ 13,321 more rows
# ℹ 11 more variables: arr_delay <dbl>, carrier <chr>, flight <int>,
#   tailnum <chr>, origin <chr>, dest <chr>, air_time <dbl>, distance <dbl>,
#   hour <dbl>, minute <dbl>, time_hour <dttm>

(b)

flights |>
  filter(month %in% c(6, 7, 8))

# A tibble: 86,995 × 19
    year month   day dep_time sched_dep_time dep_delay arr_time sched_arr_time
   <int> <int> <int>    <int>          <int>     <dbl>    <int>          <int>
 1  2013     6     1        2           2359         3      341            350
 2  2013     6     1      451            500        -9      624            640
 3  2013     6     1      506            515        -9      715            800
 4  2013     6     1      534            545       -11      800            829
 5  2013     6     1      538            545        -7      925            922
 6  2013     6     1      539            540        -1      832            840
 7  2013     6     1      546            600       -14      850            910
 8  2013     6     1      551            600        -9      828            850
 9  2013     6     1      552            600        -8      647            655
10  2013     6     1      553            600        -7      700            711
# ℹ 86,985 more rows
# ℹ 11 more variables: arr_delay <dbl>, carrier <chr>, flight <int>,
#   tailnum <chr>, origin <chr>, dest <chr>, air_time <dbl>, distance <dbl>,
#   hour <dbl>, minute <dbl>, time_hour <dttm>

(c)

flights |>
  filter(year == 2013, month == 10, day == 31, origin == "LGA")

# A tibble: 319 × 19
    year month   day dep_time sched_dep_time dep_delay arr_time sched_arr_time
   <int> <int> <int>    <int>          <int>     <dbl>    <int>          <int>
 1  2013    10    31      543            545        -2      852            827
 2  2013    10    31      552            600        -8      703            659
 3  2013    10    31      553            600        -7      649            701
 4  2013    10    31      554            600        -6      834            856
 5  2013    10    31      555            600        -5      752            749
 6  2013    10    31      555            600        -5      707            717
 7  2013    10    31      555            600        -5      730            730
 8  2013    10    31      556            600        -4      721            721
 9  2013    10    31      556            600        -4      657            658
10  2013    10    31      559            600        -1      819            828
# ℹ 309 more rows
# ℹ 11 more variables: arr_delay <dbl>, carrier <chr>, flight <int>,
#   tailnum <chr>, origin <chr>, dest <chr>, air_time <dbl>, distance <dbl>,
#   hour <dbl>, minute <dbl>, time_hour <dttm>

(d)

flights |>
  filter(dep_delay >= 30, carrier == "WN")

# A tibble: 2,088 × 19
    year month   day dep_time sched_dep_time dep_delay arr_time sched_arr_time
   <int> <int> <int>    <int>          <int>     <dbl>    <int>          <int>
 1  2013     1     1     2026           1955        31     2205           2120
 2  2013     1     2      734            700        34     1045           1025
 3  2013     1     2      834            800        34     1226           1145
 4  2013     1     2     1256           1225        31     1409           1345
 5  2013     1     2     1431           1345        46     1821           1730
 6  2013     1     2     1714           1555        79     1837           1715
 7  2013     1     2     1810           1655        75     2146           2000
 8  2013     1     3     2049           1955        54     2204           2120
 9  2013     1     4     1550           1520        30     1719           1650
10  2013     1     6     1621           1550        31     1726           1710
# ℹ 2,078 more rows
# ℹ 11 more variables: arr_delay <dbl>, carrier <chr>, flight <int>,
#   tailnum <chr>, origin <chr>, dest <chr>, air_time <dbl>, distance <dbl>,
#   hour <dbl>, minute <dbl>, time_hour <dttm>

(e)

flights |> filter(carrier == "WN", is.na(dep_time))

# A tibble: 192 × 19
    year month   day dep_time sched_dep_time dep_delay arr_time sched_arr_time
   <int> <int> <int>    <int>          <int>     <dbl>    <int>          <int>
 1  2013     1     8       NA           1300        NA       NA           1610
 2  2013     1    12       NA           1225        NA       NA           1355
 3  2013     1    26       NA            605        NA       NA            745
 4  2013     1    28       NA           1940        NA       NA           2100
 5  2013     1    29       NA           1130        NA       NA           1315
 6  2013     1    30       NA           1510        NA       NA           1650
 7  2013     1    30       NA            950        NA       NA           1130
 8  2013     1    30       NA           1300        NA       NA           1610
 9  2013     1    30       NA           1205        NA       NA           1325
10  2013     1    31       NA           1510        NA       NA           1650
# ℹ 182 more rows
# ℹ 11 more variables: arr_delay <dbl>, carrier <chr>, flight <int>,
#   tailnum <chr>, origin <chr>, dest <chr>, air_time <dbl>, distance <dbl>,
#   hour <dbl>, minute <dbl>, time_hour <dttm>
…
