STAT450, HW5
…
(a)

sfcrime_larceny_theft <- sfcrimes2023 |>
  filter(category == "Larceny Theft") |> 
  mutate(datetime = ymd_hms(datetime))

sfcrime_larceny_theft

# A tibble: 38,267 × 6
        id datetime            category      police_district latitude longitude
     <dbl> <dttm>              <chr>         <chr>              <dbl>     <dbl>
 1 1231872 2023-01-01 00:00:00 Larceny Theft Bayview             37.7     -122.
 2 1234053 2023-01-01 00:00:00 Larceny Theft Southern            37.8     -122.
 3 1234242 2023-01-01 00:00:00 Larceny Theft Mission             37.8     -122.
 4 1234755 2023-01-01 00:00:00 Larceny Theft Northern            37.8     -122.
 5 1236245 2023-01-01 00:00:00 Larceny Theft Mission             37.7     -122.
 6 1237720 2023-01-01 00:00:00 Larceny Theft Tenderloin          37.8     -122.
 7 1245428 2023-01-01 00:00:00 Larceny Theft Bayview             37.8     -122.
 8 1252991 2023-01-01 00:00:00 Larceny Theft Central             37.8     -122.
 9 1267616 2023-01-01 00:00:00 Larceny Theft Park                NA         NA 
10 1274108 2023-01-01 00:00:00 Larceny Theft Mission             37.8     -122.
# ℹ 38,257 more rows

(b)

sfcrime_larceny_with_specific_time <- sfcrime_larceny_theft  |> 
  mutate(date = date(datetime),
         month = month(datetime, label = TRUE),
         day_of_week = wday(datetime, label = TRUE),
         hour = hour(datetime)) |> 
  select(police_district, date:hour)

sfcrime_larceny_with_specific_time

# A tibble: 38,267 × 5
   police_district date       month day_of_week  hour
   <chr>           <date>     <ord> <ord>       <int>
 1 Bayview         2023-01-01 Jan   Sun             0
 2 Southern        2023-01-01 Jan   Sun             0
 3 Mission         2023-01-01 Jan   Sun             0
 4 Northern        2023-01-01 Jan   Sun             0
 5 Mission         2023-01-01 Jan   Sun             0
 6 Tenderloin      2023-01-01 Jan   Sun             0
 7 Bayview         2023-01-01 Jan   Sun             0
 8 Central         2023-01-01 Jan   Sun             0
 9 Park            2023-01-01 Jan   Sun             0
10 Mission         2023-01-01 Jan   Sun             0
# ℹ 38,257 more rows
…
