STAT450, Homework 4
…
names(relig_income)[-1]

 [1] "<$10k"              "$10-20k"            "$20-30k"           
 [4] "$30-40k"            "$40-50k"            "$50-75k"           
 [7] "$75-100k"           "$100-150k"          ">150k"             
[10] "Don't know/refused"

relig_income |> 
  pivot_longer(cols = names(relig_income)[-1],
               names_to = "income", values_to = "count")

# A tibble: 180 × 3
   religion income             count
   <chr>    <chr>              <dbl>
 1 Agnostic <$10k                 27
 2 Agnostic $10-20k               34
 3 Agnostic $20-30k               60
 4 Agnostic $30-40k               81
 5 Agnostic $40-50k               76
 6 Agnostic $50-75k              137
 7 Agnostic $75-100k             122
 8 Agnostic $100-150k            109
 9 Agnostic >150k                 84
10 Agnostic Don't know/refused    96
# ℹ 170 more rows
…
tailnum is a unique identifier for planes dataframe

Exercise 6

options(digits = 2)

airports_location <- flights |> 
  group_by(dest) |> 
  summarize(count = n(), arr_delay_mean = mean(arr_delay, na.rm = TRUE)) |> 
  left_join(airports, by = c("dest" = "faa"))
airports_location

# A tibble: 105 × 10
   dest  count arr_delay_mean name            lat    lon   alt    tz dst   tzone
   <chr> <int>          <dbl> <chr>         <dbl>  <dbl> <dbl> <dbl> <chr> <chr>
 1 ABQ     254           4.38 Albuquerque …  35.0 -107.   5355    -7 A     Amer…
 2 ACK     265           4.85 Nantucket Mem  41.3  -70.1    48    -5 A     Amer…
 3 ALB     439          14.4  Albany Intl    42.7  -73.8   285    -5 A     Amer…
 4 ANC       8          -2.5  Ted Stevens …  61.2 -150.    152    -9 A     Amer…
 5 ATL   17215          11.3  Hartsfield J…  33.6  -84.4  1026    -5 A     Amer…
 6 AUS    2439           6.02 Austin Bergs…  30.2  -97.7   542    -6 A     Amer…
 7 AVL     275           8.00 Asheville Re…  35.4  -82.5  2165    -5 A     Amer…
 8 BDL     443           7.05 Bradley Intl   41.9  -72.7   173    -5 A     Amer…
 9 BGR     375           8.03 Bangor Intl    44.8  -68.8   192    -5 A     Amer…
10 BHM     297          16.9  Birmingham I…  33.6  -86.8   644    -6 A     Amer…
# ℹ 95 more rows
…
