STAT450, Homework 3
…
[1] 58

Explanation:

unique(ca$subregion) –> creates a vector filled with unique values from the ca$subregion.

length(unique(ca$subregion)) –> how many unique values there are in ca$subregion

(c)

alameda_ca <- filter(ca, subregion == "alameda")
as_tibble(alameda_ca)

# A tibble: 36 × 6
    long   lat group order region     subregion
   <dbl> <dbl> <dbl> <int> <chr>      <chr>    
 1 -121.  37.5     1     1 california alameda  
 2 -122.  37.5     1     2 california alameda  
 3 -122.  37.5     1     3 california alameda  
 4 -122.  37.5     1     4 california alameda  
 5 -122.  37.5     1     5 california alameda  
 6 -122.  37.5     1     6 california alameda  
 7 -122.  37.5     1     7 california alameda  
 8 -122.  37.5     1     8 california alameda  
 9 -122.  37.5     1     9 california alameda  
10 -122.  37.5     1    10 california alameda  
# ℹ 26 more rows
…
